﻿{
  "STOPOLine": {
    "LineNumber": "{{lineNum}}",
    "SAPMaterialNumber": "{{matNum}}",
    "MaterialDescription": "{{matDesc}}",
    "Plant": "{{plant}}",
    "StorageLocation": "{{sLoc}}",
    "OrderQty": "{{qty}}",
    "UOM": "{{uom}}",
    "BatchNumber": "{{batch}}"
  }
}